^C:\USERS\ROYAL COMPUTERS\SOURCE\REPOS\ETHICALRAT\ETHICALINJECTOR\DEBUG\INJECTOR.OBJ
C:\USERS\ROYAL COMPUTERS\SOURCE\REPOS\ETHICALRAT\DEBUG\ETHICALINJECTOR.ILK
C:\USERS\ROYAL COMPUTERS\SOURCE\REPOS\ETHICALRAT\DEBUG\ETHICALINJECTOR.EXE
C:\USERS\ROYAL COMPUTERS\SOURCE\REPOS\ETHICALRAT\DEBUG\ETHICALINJECTOR.PDB
