^C:\USERS\ROYAL COMPUTERS\SOURCE\REPOS\ETHICALRAT\ETHICALRAT\PCH.CPP
/c /Zi /JMC /nologo /W3 /WX- /diagnostics:column /sdl- /O2 /Oi /Oy- /GL /D WIN32 /D _DEBUG /D ETHICALRAT_EXPORTS /D _WINDOWS /D _USRDLL /D _CRT_SECURE_NO_WARNINGS /D _WINDLL /D _UNICODE /D UNICODE /Gm- /EHsc /MDd /GS /Gy /fp:precise /Zc:wchar_t /Zc:forScope /Zc:inline /Yc"pch.h" /Fp"DEBUG\FUNDLL.PCH" /Fo"DEBUG\\" /Fd"DEBUG\VC142.PDB" /Gd /TP /analyze- /FC C:\USERS\ROYAL COMPUTERS\SOURCE\REPOS\ETHICALRAT\ETHICALRAT\PCH.CPP
^C:\USERS\ROYAL COMPUTERS\SOURCE\REPOS\ETHICALRAT\ETHICALRAT\DLLMAIN.CPP
/c /Zi /JMC /nologo /W3 /WX- /diagnostics:column /sdl- /O2 /Oi /Oy- /GL /D WIN32 /D _DEBUG /D ETHICALRAT_EXPORTS /D _WINDOWS /D _USRDLL /D _CRT_SECURE_NO_WARNINGS /D _WINDLL /D _UNICODE /D UNICODE /Gm- /EHsc /MDd /GS /Gy /fp:precise /Zc:wchar_t /Zc:forScope /Zc:inline /Yu"pch.h" /Fp"DEBUG\FUNDLL.PCH" /Fo"DEBUG\\" /Fd"DEBUG\VC142.PDB" /Gd /TP /analyze- /FC C:\USERS\ROYAL COMPUTERS\SOURCE\REPOS\ETHICALRAT\ETHICALRAT\DLLMAIN.CPP
